<svg width="28" height="28" viewBox="0 0 28 28" fill="none" xmlns="http://www.w3.org/2000/svg">
<path fill-rule="evenodd" clip-rule="evenodd" d="M12.834 4.66732C8.32366 4.66732 4.66732 8.32366 4.66732 12.834C4.66732 17.3443 8.32366 21.0006 12.834 21.0006C17.3443 21.0006 21.0006 17.3443 21.0006 12.834C21.0006 8.32366 17.3443 4.66732 12.834 4.66732ZM2.33398 12.834C2.33398 7.03499 7.03499 2.33398 12.834 2.33398C18.633 2.33398 23.334 7.03499 23.334 12.834C23.334 18.633 18.633 23.334 12.834 23.334C7.03499 23.334 2.33398 18.633 2.33398 12.834Z" fill="white"/>
<path fill-rule="evenodd" clip-rule="evenodd" d="M18.5995 18.5995C19.0551 18.1439 19.7938 18.1439 20.2494 18.5995L25.3244 23.6745C25.7801 24.1301 25.7801 24.8688 25.3244 25.3244C24.8688 25.7801 24.1301 25.7801 23.6745 25.3244L18.5995 20.2494C18.1439 19.7938 18.1439 19.0551 18.5995 18.5995Z" fill="white"/>
</svg>
